===================================================================================================================================================================================
 WEBSITE| NAME                          | PRICE     | LINK
===================================================================================================================================================================================
 Amazone| Apple iPhone XS, 64GB, Silver | 0.0       | https://www.amazon.com/Apple-iPhone-XS-Fully-Unlocked/dp/B07K4VCLLK/ref=sr_1_3?dchild=1&keywords=iphone+11&qid=1597127610&sr=8-3
 Amazone| Apple iPhone 11 Pro (64GB, Gol| 0.0       | https://www.amazon.com/Apple-iPhone-11-Pro-Dorado/dp/B084GSXQTC/ref=sr_1_7?dchild=1&keywords=iphone+11&qid=1597127610&sr=8-7
 Amazone| Apple iPhone 11 (256GB, Purple| 0.0       | https://www.amazon.com/dp/B084GSYMNJ/ref=sr_1_8?dchild=1&keywords=iphone+11&qid=1597127610&sr=8-8
 Amazone| Apple iPhone 8 Plus, 64GB, Sil| 0.0       | https://www.amazon.com/Apple-iPhone-Plus-renovado-Plateado/dp/B07D6T9VPK/ref=sr_1_9?dchild=1&keywords=iphone+11&qid=1597127610&sr=8-9
 Amazone| Apple iPhone 11 Pro Max (64GB,| 0.0       | https://www.amazon.com/Apple-Carrier-Subscription-Cricket-Wireless/dp/B084GSPKMV/ref=sr_1_10?dchild=1&keywords=iphone+11&qid=1597127610&sr=8-10
 Amazone| Apple iPhone XR (64GB, (PRODUC| 0.0       | https://www.amazon.com/Apple-iPhone-XR-producto-rojo/dp/B07VSWLY55/ref=sr_1_12?dchild=1&keywords=iphone+11&qid=1597127610&sr=8-12
 Amazone| New Apple iPhone SE (64GB, Whi| 0.0       | https://www.amazon.com/Apple-Carrier-Subscription-Cricket-Wireless/dp/B0875L51VV/ref=sr_1_14?dchild=1&keywords=iphone+11&qid=1597127610&sr=8-14
 Amazone| Moto G7 power | Unlocked | Mad| 0.0       | https://www.amazon.com/Unlocked-Motorola-Camera-OtterBox-SYMMETRY/dp/B08D9HM8D6/ref=sr_1_15?dchild=1&keywords=iphone+11&qid=1597127610&sr=8-15
 Amazone| Samsung Galaxy S10+, 128GB, Pr| 0.0       | https://www.amazon.com/Samsung-Factory-Unlocked-Warranty-Renewed/dp/B07PJV9ZLR/ref=sr_1_24?dchild=1&keywords=iphone+11&qid=1597127610&sr=8-24
 Amazone| Apple iPhone XS (512GB, Silver| 0.0       | https://www.amazon.com/Apple-iPhone-XS-512GB-Silver/dp/B07VSSS3ZN/ref=sr_1_26?dchild=1&keywords=iphone+11&qid=1597127610&sr=8-26
 Amazone| Samsung Galaxy S20+ 5G Factory| 0.0       | https://www.amazon.com/Samsung-Unlocked-Fingerprint-Recognition-Long-Lasting/dp/B082XXZ5K3/ref=sr_1_27?dchild=1&keywords=iphone+11&qid=1597127610&sr=8-27
 Amazone| Samsung Galaxy Note 10 Lite N7| 0.0       | https://www.amazon.com/N770F-Dual-SIM-Unlocked-International-Compatible/dp/B084MDBXRD/ref=sr_1_29?dchild=1&keywords=iphone+11&qid=1597127610&sr=8-29
 Amazone| ASUS ROG Phone 2 (ZS660KL) Sma| 0.0       | https://www.amazon.com/ASUS-ZS660KL-Smartphone-Snapdragon-Android/dp/B07YBVZ2PW/ref=sr_1_31?dchild=1&keywords=iphone+11&qid=1597127610&sr=8-31
 Amazone| Samsung Galaxy S8 64GB Phone- | 0.0       | https://www.amazon.com/Samsung-Galaxy-64GB-Phone-display/dp/B06Y189H68/ref=sr_1_34?dchild=1&keywords=iphone+11&qid=1597127610&sr=8-34
 Amazone| Apple iPhone 8 (64GB, Silver) | 0.0       | https://www.amazon.com/Apple-iPhone-8-64GB-Silver/dp/B07VLJCNX2/ref=sr_1_38?dchild=1&keywords=iphone+11&qid=1597127625&sr=8-38
 Amazone| Apple iPad Air 2, 16GB, 4G + W| 0.0       | https://www.amazon.com/Apple-iPad-Air-16GB-Wi-Fi/dp/B079ZSBTGZ/ref=sr_1_40?dchild=1&keywords=iphone+11&qid=1597127625&sr=8-40
 Amazone| Apple iPhone 8 Plus (128GB, Sp| 0.0       | https://www.amazon.com/MX212LL-A/dp/B084N4WVQL/ref=sr_1_42?dchild=1&keywords=iphone+11&qid=1597127625&sr=8-42
 Amazone| ASUS ROG Phone 2 (New) Unlocke| 0.0       | https://www.amazon.com/ASUS-ROG-Gaming-Phone-ZS660KL-S855P-12G512G-BK/dp/B07XPH822S/ref=sr_1_47?dchild=1&keywords=iphone+11&qid=1597127625&sr=8-47
 Amazone| ASUS ZenFone 5Z (ZS620KL-S845-| 0.0       | https://www.amazon.com/ASUS-ZenFone-5Z-ZS620KL-S845-6G64G-2160x1080/dp/B07CLT3BDN/ref=sr_1_48?dchild=1&keywords=iphone+11&qid=1597127625&sr=8-48
 Amazone| HUAWEI P30 Pro Factory Unlocke| 0.0       | https://www.amazon.com/HUAWEI-Factory-Unlocked-International-Version/dp/B07Q2WPMNB/ref=sr_1_52?dchild=1&keywords=iphone+11&qid=1597127633&sr=8-52
 Amazone| Samsung Galaxy A10e 32GB A102U| 0.0       | https://www.amazon.com/SM-A102UZKAXAA/dp/B07VXC97KS/ref=sr_1_55?dchild=1&keywords=iphone+11&qid=1597127633&sr=8-55
 Amazone| Samsung Galaxy S10 5G, 256GB, | 0.0       | https://www.amazon.com/Samsung-Enabled-SM-G977UZAVZW-Majestic-Unlocked/dp/B07WW23RNV/ref=sr_1_56?dchild=1&keywords=iphone+11&qid=1597127633&sr=8-56
 Amazone| Samsung Galaxy S9 G960U 64GB U| 0.0       | https://www.amazon.com/Samsung-Galaxy-S9-Unlocked-Smartphone/dp/B079JSZ1Z2/ref=sr_1_58?dchild=1&keywords=iphone+11&qid=1597127633&sr=8-58
 Amazone| Generic Goophone 11max pro Fac| 0.0       | https://www.amazon.com/Generic-Goophone-11max-Factory-Unlocked/dp/B087G1KPCN/ref=sr_1_61?dchild=1&keywords=iphone+11&qid=1597127633&sr=8-61
 Amazone| Apple iPhone 7 Matte Black 32G| 0.0       | https://www.amazon.com/Apple-iPhone-Verizon-Unlocked-Refurbished/dp/B07HYDFX8G/ref=sr_1_62?dchild=1&keywords=iphone+11&qid=1597127633&sr=8-62
 Amazone| Apple iPhone XS Max, 64GB, Gol| 0.0       | https://www.amazon.com/Apple-iPhone-Max-64GB-Gold/dp/B07RLPJV15/ref=sr_1_63?dchild=1&keywords=iphone+11&qid=1597127633&sr=8-63
 Amazone| Generic Goophone 11max 512GB U| 0.0       | https://www.amazon.com/Generic-Goophone-11max-512GB-Unlocked/dp/B07YLJZJPZ/ref=sr_1_64?dchild=1&keywords=iphone+11&qid=1597127633&sr=8-64
 Amazone| Generic Goophone 11max Octacor| 0.0       | https://www.amazon.com/Generic-Goophone-Octacore-Factory-Unlocked/dp/B081K4FKSX/ref=sr_1_66?dchild=1&keywords=iphone+11&qid=1597127633&sr=8-66
 Amazone| Sony Xperia 1 Unlocked Smartph| 0.0       | https://www.amazon.com/Sony-Unlocked-Smartphone-CinemaWide-Display/dp/B07PHQ7FBP/ref=sr_1_71?dchild=1&keywords=iphone+11&qid=1597127642&sr=8-71
 Amazone| Apple iPhone XS Max (64GB, Sil| 0.0       | https://www.amazon.com/Apple-iPhone-XS-Max-64GB/dp/B07VMNWWWZ/ref=sr_1_72?dchild=1&keywords=iphone+11&qid=1597127642&sr=8-72
 Amazone| Xiaomi Redmi Note 8 6.3" 64GB | 0.0       | https://www.amazon.com/Xiaomi-Redmi-Note-Internationa-Version/dp/B07YZLRS3Z/ref=sr_1_73?dchild=1&keywords=iphone+11&qid=1597127642&sr=8-73
 Amazone| Samsung Galaxy A50 A505G 64GB | 0.0       | https://www.amazon.com/Samsung-Galaxy-Infinity-U-Display-Warranty/dp/B07KXBMYCW/ref=sr_1_75?dchild=1&keywords=iphone+11&qid=1597127642&sr=8-75
 Amazone| Huawei Mate 20 Pro LYA-L29 128| 0.0       | https://www.amazon.com/Huawei-Mate-LYA-L29-128GB-International/dp/B07K1M36CM/ref=sr_1_76?dchild=1&keywords=iphone+11&qid=1597127642&sr=8-76
 Amazone| Samsung Galaxy A70 A705M 128GB| 0.0       | https://www.amazon.com/Samsung-A70-Infinity-U-Smartphone-International/dp/B07RS512XL/ref=sr_1_83?dchild=1&keywords=iphone+11&qid=1597127652&sr=8-83
 Amazone| Generic Goophone xs max 9Core | 0.0       | https://www.amazon.com/generic-Goophone-max-Factory-Unlocked/dp/B07NJXQY5D/ref=sr_1_84?dchild=1&keywords=iphone+11&qid=1597127652&sr=8-84
 Amazone| RCA M1 4.0 Unlocked Cell Phone| 0.0       | https://www.amazon.com/RCA-M1-Unlocked-Camera-Android/dp/B00OSTKZWM/ref=sr_1_86?dchild=1&keywords=iphone+11&qid=1597127652&sr=8-86
 Amazone| Generic Goophone 11max 512GB C| 0.0       | https://www.amazon.com/Generic-Goophone-11max-512GB-Phone/dp/B07YLM1ZC9/ref=sr_1_87?dchild=1&keywords=iphone+11&qid=1597127652&sr=8-87
 Amazone| Nokia 6 - 32 GB - Dual Sim Unl| 0.0       | https://www.amazon.com/Nokia-Unlocked-Smartphone-T-Mobile-MetroPCS/dp/B071VYJLJV/ref=sr_1_88?dchild=1&keywords=iphone+11&qid=1597127652&sr=8-88
 Amazone| Samsung Galaxy J3 2018 (16GB) | 0.0       | https://www.amazon.com/Samsung-Galaxy-2018-16GB-J337A/dp/B07FKH13T2/ref=sr_1_92?dchild=1&keywords=iphone+11&qid=1597127652&sr=8-92
 Amazone| Samsung Galaxy Cellphone - S10| 0.0       | https://www.amazon.com/Samsung-Galaxy-Cellphone-Factory-Unlock/dp/B07P2H2GZ8/ref=sr_1_93?dchild=1&keywords=iphone+11&qid=1597127652&sr=8-93
 Amazone| Huawei P30 Pro 128GB 8GB RAM V| 0.0       | https://www.amazon.com/Huawei-VOG-L29-Unlocked-Breathing-Crystal/dp/B07TSY9726/ref=sr_1_95?dchild=1&keywords=iphone+11&qid=1597127652&sr=8-95
 Amazone| Honor 9X 6.59, 128GB, 6GB RAM,| 0.0       | https://www.amazon.com/Triple-Camera-Unlocked-Warranty-STK-LX3/dp/B084X75JJW/ref=sr_1_96?dchild=1&keywords=iphone+11&qid=1597127652&sr=8-96
 Amazone| Google Pixel 3 XL 64GB Unlocke| 0.0       | https://www.amazon.com/Pixel-Phone-XL-Certified-Refurbished/dp/B07HKPMFZ5/ref=sr_1_97?dchild=1&keywords=iphone+11&qid=1597127652&sr=8-97
 Amazone| Samsung Galaxy S10+ Plus 512GB| 0.0       | https://www.amazon.com/Samsung-SM-G975F-Dual-SIM-Unlocked-Smartphone/dp/B07NWR7QYP/ref=sr_1_98?dchild=1&keywords=iphone+11&qid=1597127652&sr=8-98
 Amazone| HUAWEI P20 Lite (32GB + 4GB RA| 0.0       | https://www.amazon.com/Huawei-ANE-LX3-Factory-Unlocked-Smartphone/dp/B07C5B98V7/ref=sr_1_101?dchild=1&keywords=iphone+11&qid=1597127661&sr=8-101
 Amazone| Samsung Galaxy J3 Prime J327A | 0.0       | https://www.amazon.com/Samsung-Galaxy-Prime-Nougat-Unlocked/dp/B072V2BNM6/ref=sr_1_104?dchild=1&keywords=iphone+11&qid=1597127661&sr=8-104
 Amazone| Total Wireless Samsung Galaxy | 0.0       | https://www.amazon.com/Total-Wireless-Samsung-Prepaid-Smartphone/dp/B071KZCH5R/ref=sr_1_107?dchild=1&keywords=iphone+11&qid=1597127661&sr=8-107
 Amazone| Generic Goophone 11max 512GB F| 0.0       | https://www.amazon.com/Generic-Goophone-11max-Factory-Unlocked/dp/B083GCPNMR/ref=sr_1_111?dchild=1&keywords=iphone+11&qid=1597127661&sr=8-111
 Amazone| HTC U11 life (32GB 3GB RAM) | | 0.0       | https://www.amazon.com/HTC-U11-life-Unlocked-Sapphire/dp/B075GH2QP8/ref=sr_1_112?dchild=1&keywords=iphone+11&qid=1597127661&sr=8-112
 Amazone| LG Aristo 2 Plus X212(G) 5.0in| 0.0       | https://www.amazon.com/LG-Aristo-T-Mobile-Android-Smartphone/dp/B07PB78FLF/ref=sr_1_113?dchild=1&keywords=iphone+11&qid=1597127661&sr=8-113
 Amazone| Sony Xperia 10 Plus GSM Unlock| 0.0       | https://www.amazon.com/Sony-Xperia-Plus-GSM-desbloqueado/dp/B07MZ2TRTC/ref=sr_1_116?dchild=1&keywords=iphone+11&qid=1597127673&sr=8-116
 Amazone| Motorola Moto Z Play XT1635-02| 0.0       | https://www.amazon.com/Motorola-XT1635-02-5-5-Inch-Unlocked-International/dp/B01MZ05P97/ref=sr_1_119?dchild=1&keywords=iphone+11&qid=1597127673&sr=8-119
 Amazone| Generic Goophone 11max 512GB C| 0.0       | https://www.amazon.com/Generic-Goophone-11max-512GB-Sliver/dp/B083GN1XZ9/ref=sr_1_120?dchild=1&keywords=iphone+11&qid=1597127673&sr=8-120
 Amazone| generic Goophone xs max OctaCo| 0.0       | https://www.amazon.com/Goophone-max-OctaCore-Tel%C3%A9fono-desbloqueado/dp/B07PV2VCQ5/ref=sr_1_122?dchild=1&keywords=iphone+11&qid=1597127673&sr=8-122
 Amazone| ZTE Altair 2 (Z432) 3G QWERTY | 0.0       | https://www.amazon.com/ZTE-Clamshell-Prepaid-Annual-Contract/dp/B00Q1U31VI/ref=sr_1_123?dchild=1&keywords=iphone+11&qid=1597127673&sr=8-123
 Amazone| HTC U11 64GB Single SIM Factor| 0.0       | https://www.amazon.com/HTC-Factory-Unlocked-Smartphone-Sapphire/dp/B071VV92K2/ref=sr_1_124?dchild=1&keywords=iphone+11&qid=1597127673&sr=8-124
 Amazone| BlackBerry Passport Factory Un| 0.0       | https://www.amazon.com/BlackBerry-Passport-Unlocked-Cellphone-International/dp/B00NET0PVI/ref=sr_1_126?dchild=1&keywords=iphone+11&qid=1597127673&sr=8-126
 Amazone| Samsung Galaxy S10e 128GB+6GB | 0.0       | https://www.amazon.com/Samsung-SM-G970-Smartphone-International-Model/dp/B07P57DS41/ref=sr_1_127?dchild=1&keywords=iphone+11&qid=1597127673&sr=8-127
 Amazone| Huawei Honor 8X (64GB + 4GB RA| 0.0       | https://www.amazon.com/Huawei-Honor-Factory-Unlocked-Smartphone/dp/B07L14D7F7/ref=sr_1_128?dchild=1&keywords=iphone+11&qid=1597127673&sr=8-128
 Amazone| Coolpad Splatter unlocked smar| 0.0       | https://www.amazon.com/Coolpad-Splatter-unlocked-smartphone-hands-free/dp/B073C4P5CD/ref=sr_1_129?dchild=1&keywords=iphone+11&qid=1597127673&sr=8-129
 Amazone| 24K Gold Plated iPhone Xs 256 | 0.0       | https://www.amazon.com/24K-Gold-Plated-iPhone-Silver/dp/B078T2CZH5/ref=sr_1_130?dchild=1&keywords=iphone+11&qid=1597127673&sr=8-130
 Amazone| Huawei P10 Lite 32GB was-LX3 O| 0.0       | https://www.amazon.com/Huawei-Lite-WAS-LX3-International-Version/dp/B0743D82GL/ref=sr_1_131?dchild=1&keywords=iphone+11&qid=1597127682&sr=8-131
 Amazone| Oppo R17 128GB/8GB (Blue) 4G L| 0.0       | https://www.amazon.com/Oppo-128GB-Blue-2340x1080-AMOLED/dp/B07GX4B7NS/ref=sr_1_132?dchild=1&keywords=iphone+11&qid=1597127682&sr=8-132
 Amazone| Sony Xperia XA1 G3123 32GB Unl| 0.0       | https://www.amazon.com/Sony-Xperia-XA1-Unlocked-Smartphone/dp/B06WVZ4T7Y/ref=sr_1_133?dchild=1&keywords=iphone+11&qid=1597127682&sr=8-133
 Amazone| HTC 10 32GB, Glacier Silver (V| 0.0       | https://www.amazon.com/HTC-32GB-Glacier-Silver-Verizon/dp/B01N2U0SXP/ref=sr_1_134?dchild=1&keywords=iphone+11&qid=1597127682&sr=8-134
 Amazone| Samsung Galaxy J3 Prime J327A | 0.0       | https://www.amazon.com/Samsung-J3-Factory-Unlocked-Phone/dp/B072KPG9PN/ref=sr_1_135?dchild=1&keywords=iphone+11&qid=1597127682&sr=8-135
 Amazone| ASUS ZS600KL-S845-8G128G ROG G| 0.0       | https://www.amazon.com/ASUS-ZS600KL-S845-8G128G-Smartphone-2160x1080-Display/dp/B07GS272K7/ref=sr_1_138?dchild=1&keywords=iphone+11&qid=1597127682&sr=8-138
 Amazone| HTC U11 Life (32GB) 5.2" FHD D| 0.0       | https://www.amazon.com/HTC-U11-Life-Resistant-Smartphone/dp/B07JF7NJTZ/ref=sr_1_139?dchild=1&keywords=iphone+11&qid=1597127682&sr=8-139
 Amazone| Huawei Honor 8X (64GB + 4GB RA| 0.0       | https://www.amazon.com/Huawei-Honor-Factory-Unlocked-Smartphone/dp/B07L4WRXXT/ref=sr_1_141?dchild=1&keywords=iphone+11&qid=1597127682&sr=8-141
 Amazone| HUAWEI P20 Lite (32GB + 4GB RA| 0.0       | https://www.amazon.com/Huawei-P20-Lite-Unlocked-Smartphone/dp/B07C5HH17G/ref=sr_1_144?dchild=1&keywords=iphone+11&qid=1597127682&sr=8-144
 Amazone| VERIZON WIRELESS CELL PHONE SA| 0.0       | https://www.amazon.com/WIRELESS-INTENSITY-METALLIC-CONTRACT-REQUIRED/dp/B005SV26GW/ref=sr_1_145?dchild=1&keywords=iphone+11&qid=1597127682&sr=8-145
 Amazone| Google Pixel 2 64GB Unlocked G| 0.0       | https://www.amazon.com/Google-Unlocked-Octa-Core-12-2MP-Camera/dp/B078KGP5K5/ref=sr_1_146?dchild=1&keywords=iphone+11&qid=1597127682&sr=8-146
 Amazone| HTC U Ultra 64GB GSM Unlocked | 0.0       | https://www.amazon.com/Factory-unlokced-Internacional-garant%C3%ADa-Sapphire/dp/B06WD1D78G/ref=sr_1_147?dchild=1&keywords=iphone+11&qid=1597127694&sr=8-147
 Amazone| Samsung Galaxy Prime 16GB J327| 0.0       | https://www.amazon.com/Samsung-Galaxy-T-Mobile-Unlocked-Smartphone/dp/B07GW1DXFP/ref=sr_1_149?dchild=1&keywords=iphone+11&qid=1597127694&sr=8-149
 Amazone| OPPO Find X FindX 6.42'' 128GB| 0.0       | https://www.amazon.com/Original-OPPO-Smartphone-Support-TECHNOLOGY%EF%BC%89/dp/B07F43X4F1/ref=sr_1_153?dchild=1&keywords=iphone+11&qid=1597127694&sr=8-153
 Amazone| Samsung Galaxy S10+ Plus Facto| 0.0       | https://www.amazon.com/Samsung-Galaxy-Factory-Unlocked-Warranty/dp/B07YBVTP76/ref=sr_1_154?dchild=1&keywords=iphone+11&qid=1597127694&sr=8-154
 Amazone| BLU WIN HD LTE - 5.0" Windows | 0.0       | https://www.amazon.com/BLU-WIN-HD-LTE-Smartphone/dp/B00XPUCCPI/ref=sr_1_156?dchild=1&keywords=iphone+11&qid=1597127694&sr=8-156
 Amazone| Net10 Samsung Galaxy Luna 4G L| 0.0       | https://www.amazon.com/Net10-Samsung-Prepaid-Smartphone-Airtime/dp/B01LYKNQVA/ref=sr_1_157?dchild=1&keywords=iphone+11&qid=1597127694&sr=8-157
 Amazone| Nokia 6 - 32 GB - Dual Sim Unl| 0.0       | https://www.amazon.com/Nokia-Unlocked-Smartphone-T-Mobile-MetroPCS/dp/B071ZDQ6MV/ref=sr_1_158?dchild=1&keywords=iphone+11&qid=1597127694&sr=8-158
 Amazone| Nokia 3.1 - Android 9.0 Pie - | 0.0       | https://www.amazon.com/Nokia-3-1-Unlocked-Smartphone-T-Mobile/dp/B07DDBQ67F/ref=sr_1_159?dchild=1&keywords=iphone+11&qid=1597127694&sr=8-159
 Amazone| Nokia 6 TA-1025 32GB Unlocked | 0.0       | https://www.amazon.com/Nokia-Unlocked-Smartphone-T-Mobile-MetroPCS/dp/B072C2F3X1/ref=sr_1_160?dchild=1&keywords=iphone+11&qid=1597127694&sr=8-160
 Amazone| SOYES 7S Android 6.0 OS 2.5 In| 0.0       | https://www.amazon.com/Android-2-5-inch-tel%C3%A9fono-desbloqueado-inteligente/dp/B07DBRFPCP/ref=sr_1_161?dchild=1&keywords=iphone+11&qid=1597127694&sr=8-161
 Amazone| Samsung Galaxy Note 10 Factory| 0.0       | https://www.amazon.com/dp/B07YNGQXC6/ref=sr_1_162?dchild=1&keywords=iphone+11&qid=1597127694&sr=8-162
 Amazone| Samsung Galaxy Note 10 Factory| 0.0       | https://www.amazon.com/Samsung-Factory-Unlocked-Warranty-Note10w/dp/B07YBVZPV4/ref=sr_1_163?dchild=1&keywords=iphone+11&qid=1597127705&sr=8-163
 Amazone| Verizon Wireless 4G LTE SIM Ca| 5.59      | https://www.amazon.com/Verizon-Postpaid-Prepaid-SIM-Standard/dp/B07GNMFD1J/ref=sr_1_103?dchild=1&keywords=iphone+11&qid=1597127661&sr=8-103
 Amazone| Headphones for iPhone 11 Adapt| 9.99      | https://www.amazon.com/gp/slredirect/picassoRedirect.html/ref=pa_sp_atf_next_aps_sr_pg5_1?ie=UTF8&adId=A0883555J3WGL8DFKN1D&url=%2FHeadphones-Adapter-Headphone-Splitter-Connectors%2Fdp%2FB08DNDBMZJ%2Fref%3Dsr_1_65_sspa%3Fdchild%3D1%26keywords%3Diphone%2B11%26qid%3D1597127642%26sr%3D8-65-spons%26psc%3D1&qualifier=1597127652&id=8327357314774769&widgetName=sp_atf_next
 Amazone| Adjustable Cell Phone Stand, A| 10.99     | https://www.amazon.com/gp/slredirect/picassoRedirect.html/ref=pa_sp_atf_next_aps_sr_pg5_1?ie=UTF8&adId=A0251700XY1WI3WF0TV8&url=%2FAdjustable-Aenfor-Desktop-Compatible-Nintendo%2Fdp%2FB088BZKM39%2Fref%3Dsr_1_66_sspa%3Fdchild%3D1%26keywords%3Diphone%2B11%26qid%3D1597127642%26sr%3D8-66-spons%26psc%3D1&qualifier=1597127652&id=8327357314774769&widgetName=sp_atf_next
 Amazone| CredDeal iPhone Charger, [ MFi| 11.97     | https://www.amazon.com/gp/slredirect/picassoRedirect.html/ref=pa_sp_atf_next_aps_sr_pg10_1?ie=UTF8&adId=A00337171GGMSH2P04UQV&url=%2Fcertificado-Cable-Lightning-sincronizaci%25C3%25B3n-compatible%2Fdp%2FB086HK6P2S%2Fref%3Dsr_1_146_sspa%3Fdchild%3D1%26keywords%3Diphone%2B11%26qid%3D1597127694%26sr%3D8-146-spons%26psc%3D1&qualifier=1597127705&id=4045379654788421&widgetName=sp_atf_next
 Amazone| iPhone Charger Lightning Cable| 11.98     | https://www.amazon.com/gp/slredirect/picassoRedirect.html/ref=pa_sp_atf_next_aps_sr_pg3_1?ie=UTF8&adId=A07321512GZK9ZDFXULE7&url=%2FLightning-Certified-Charging-Cord-Compatible%2Fdp%2FB089Q7WWGZ%2Fref%3Dsr_1_33_sspa%3Fdchild%3D1%26keywords%3Diphone%2B11%26qid%3D1597127625%26sr%3D8-33-spons%26psc%3D1&qualifier=1597127633&id=7669013723316412&widgetName=sp_atf_next
 Amazone| MFi Certified iPhone Charger C| 11.98     | https://www.amazon.com/gp/slredirect/picassoRedirect.html/ref=pa_sp_atf_next_aps_sr_pg4_1?ie=UTF8&adId=A04047762X9NOWIMCHJ9Q&url=%2FPower4-WPL024-iPhone-Cable190908-A17%2Fdp%2FB07XMKNH9T%2Fref%3Dsr_1_50_sspa%3Fdchild%3D1%26keywords%3Diphone%2B11%26qid%3D1597127633%26sr%3D8-50-spons%26psc%3D1&qualifier=1597127642&id=5506984414973359&widgetName=sp_atf_next
 Amazone| Lightning to 3.5mm Headphone A| 12.99     | https://www.amazon.com/gp/slredirect/picassoRedirect.html/ref=pa_sp_atf_next_aps_sr_pg7_1?ie=UTF8&adId=A01176523BUM5BEZFUWFL&url=%2FLightning-Headphone-Certified-Connector-Compatible%2Fdp%2FB083FCN5PH%2Fref%3Dsr_1_98_sspa%3Fdchild%3D1%26keywords%3Diphone%2B11%26qid%3D1597127661%26sr%3D8-98-spons%26psc%3D1&qualifier=1597127673&id=1994546480812583&widgetName=sp_atf_next
 Amazone| Lightning to 3.5mm Headphone A| 12.99     | https://www.amazon.com/gp/slredirect/picassoRedirect.html/ref=pa_sp_atf_next_aps_sr_pg8_1?ie=UTF8&adId=A00400731N9CER63HZ2P9&url=%2FLightning-Headphone-Certified-Connector-Compatible%2Fdp%2FB083FCWL7W%2Fref%3Dsr_1_114_sspa%3Fdchild%3D1%26keywords%3Diphone%2B11%26qid%3D1597127673%26sr%3D8-114-spons%26psc%3D1&qualifier=1597127681&id=3103510667766783&widgetName=sp_atf_next
 Amazone| Aoshitai iPhone Charging Cable| 12.99     | https://www.amazon.com/gp/slredirect/picassoRedirect.html/ref=pa_sp_atf_next_aps_sr_pg9_1?ie=UTF8&adId=A0489679160C5RX7TEUG4&url=%2FAoshitai-Charging-Braided-Lightning-Charger%2Fdp%2FB07SM5P9XB%2Fref%3Dsr_1_130_sspa%3Fdchild%3D1%26keywords%3Diphone%2B11%26qid%3D1597127682%26sr%3D8-130-spons%26psc%3D1&qualifier=1597127694&id=2766320166652568&widgetName=sp_atf_next
 Amazone| KOM Cycling Universal Phone Ad| 12.99     | https://www.amazon.com/gp/slredirect/picassoRedirect.html/ref=pa_sp_atf_next_aps_sr_pg10_1?ie=UTF8&adId=A057530569BWU7P63QPV&url=%2FKOM-Cycling-Universal-Adapter-Smartphone%2Fdp%2FB076P316M8%2Fref%3Dsr_1_145_sspa%3Fdchild%3D1%26keywords%3Diphone%2B11%26qid%3D1597127694%26sr%3D8-145-spons%26psc%3D1&qualifier=1597127705&id=4045379654788421&widgetName=sp_atf_next
 Amazone| iPhone XR Case, 9H Tempered Gl| 12.99     | https://www.amazon.com/gp/slredirect/picassoRedirect.html/ref=pa_sp_atf_next_aps_sr_pg11_1?ie=UTF8&adId=A04888601SIT0D2R3NXIA&url=%2FTempered-Sunflower-Anti-Scratch-Fashion-6-1-inch%2Fdp%2FB07WQFGYGX%2Fref%3Dsr_1_161_sspa%3Fdchild%3D1%26keywords%3Diphone%2B11%26qid%3D1597127705%26sr%3D8-161-spons%26psc%3D1&qualifier=1597127716&id=2119653505051838&widgetName=sp_atf_next
 Amazone| Phone Holder for Bike, Silicon| 13.99     | https://www.amazon.com/gp/slredirect/picassoRedirect.html/ref=pa_sp_atf_next_aps_sr_pg4_1?ie=UTF8&adId=A00836062HUGLG4O8799A&url=%2FSilicone-Universal-Motorcycle-Mountain-Accessories%2Fdp%2FB08D7DM8Z8%2Fref%3Dsr_1_49_sspa%3Fdchild%3D1%26keywords%3Diphone%2B11%26qid%3D1597127633%26sr%3D8-49-spons%26psc%3D1&qualifier=1597127642&id=5506984414973359&widgetName=sp_atf_next
 Amazone| Lightning to 3.5mm Car Audio C| 13.99     | https://www.amazon.com/gp/slredirect/picassoRedirect.html/ref=pa_sp_atf_next_aps_sr_pg6_1?ie=UTF8&adId=A03739363PVL4HSQ32TKK&url=%2FLightning-Certified-Headphone-Adapter-Compatible%2Fdp%2FB08BLC149H%2Fref%3Dsr_1_82_sspa%3Fdchild%3D1%26keywords%3Diphone%2B11%26qid%3D1597127652%26sr%3D8-82-spons%26psc%3D1&qualifier=1597127661&id=3849815305807071&widgetName=sp_atf_next
 Amazone| Ferilinso Screen Protector for| 14.99     | https://www.amazon.com/gp/slredirect/picassoRedirect.html/ref=pa_sp_atf_next_aps_sr_pg2_1?ie=UTF8&adId=A03806262GEUYZYR3GAB4&url=%2FFerilinso-Screen-Protector-iPhone-Tempered%2Fdp%2FB088CZFY3R%2Fref%3Dsr_1_17_sspa%3Fdchild%3D1%26keywords%3Diphone%2B11%26qid%3D1597127610%26sr%3D8-17-spons%26psc%3D1&qualifier=1597127625&id=2378063188946043&widgetName=sp_atf_next
 Amazone| Syncwire iPhone Charger Lightn| 14.99     | https://www.amazon.com/gp/slredirect/picassoRedirect.html/ref=pa_sp_atf_next_aps_sr_pg2_1?ie=UTF8&adId=A01536533FU8MOPR8JBS8&url=%2FSyncwire-Cable-Nylon-Braided-Silver%2Fdp%2FB07XP599M4%2Fref%3Dsr_1_18_sspa%3Fdchild%3D1%26keywords%3Diphone%2B11%26qid%3D1597127610%26sr%3D8-18-spons%26psc%3D1&qualifier=1597127625&id=2378063188946043&widgetName=sp_atf_next
 Amazone| iPhone Charger Set, Overtime A| 18.99     | https://www.amazon.com/gp/slredirect/picassoRedirect.html/ref=pa_sp_atf_next_aps_sr_pg3_1?ie=UTF8&adId=A09341491L2GUUP75MPVV&url=%2FCertified-Charger-Lightning-Universal-Compatible%2Fdp%2FB07RN2VVZG%2Fref%3Dsr_1_34_sspa%3Fdchild%3D1%26keywords%3Diphone%2B11%26qid%3D1597127625%26sr%3D8-34-spons%26psc%3D1&qualifier=1597127633&id=7669013723316412&widgetName=sp_atf_next
 Amazone| Tracfone Carrier-Locked LG Reb| 19.99     | https://www.amazon.com/Tracfone-Carrier-Locked-Rebel-Prepaid-Smartphone/dp/B084GXVNGR/ref=sr_1_37?dchild=1&keywords=iphone+11&qid=1597127625&sr=8-37
 Amazone| Tracfone Carrier-Locked Alcate| 19.99     | https://www.amazon.com/Tracfone-Alcatel-MyFlip-Prepaid-Phone/dp/B07GBRB55Z/ref=sr_1_102?dchild=1&keywords=iphone+11&qid=1597127661&sr=8-102
 Amazone| Unlocked Bluetooth Mini Mobile| 19.99     | https://www.amazon.com/Unlocked-Bluetooth-Phones-BM70-Earphone-0-66inch/dp/B07VVQHVYK/ref=sr_1_110?dchild=1&keywords=iphone+11&qid=1597127661&sr=8-110
 Amazone| Mini Small Mobil Cell Phone L8| 20.99     | https://www.amazon.com/Sudroid-Bluetooth-handset-Unlocked-Earphone/dp/B07JKMCLXL/ref=sr_1_148?dchild=1&keywords=iphone+11&qid=1597127694&sr=8-148
 Amazone| iPhone Charger Set, 2-Pack Ove| 22.99     | https://www.amazon.com/gp/slredirect/picassoRedirect.html/ref=pa_sp_atf_next_aps_sr_pg9_1?ie=UTF8&adId=A093470566CBQ1H7IGEP&url=%2FCertified-Charger-Lightning-Universal-Compatible%2Fdp%2FB07RP3BJ91%2Fref%3Dsr_1_129_sspa%3Fdchild%3D1%26keywords%3Diphone%2B11%26qid%3D1597127682%26sr%3D8-129-spons%26psc%3D1&qualifier=1597127694&id=2766320166652568&widgetName=sp_atf_next
 Amazone| BLU Tank II T193 Unlocked GSM | 23.99     | https://www.amazon.com/BLU-Unlocked-Dual-SIM-Camera-Battery/dp/B00O5EU7TQ/ref=sr_1_118?dchild=1&keywords=iphone+11&qid=1597127673&sr=8-118
 Amazone| Simple Mobile TCL LX 4G LTE Pr| 25.49     | https://www.amazon.com/Simple-Mobile-TCL-Prepaid-Smartphone/dp/B07GC5QKTC/ref=sr_1_60?dchild=1&keywords=iphone+11&qid=1597127633&sr=8-60
 Amazone| USB C Charger, PowerLot 48W Ga| 25.99     | https://www.amazon.com/gp/slredirect/picassoRedirect.html/ref=pa_sp_atf_next_aps_sr_pg11_1?ie=UTF8&adId=A0476714IV8EPWOIBLMB&url=%2FCargador-PowerLot-Delivery-cargador-port%25C3%25A1til%2Fdp%2FB083TBN84B%2Fref%3Dsr_1_162_sspa%3Fdchild%3D1%26keywords%3Diphone%2B11%26qid%3D1597127705%26sr%3D8-162-spons%26psc%3D1&qualifier=1597127716&id=2119653505051838&widgetName=sp_atf_next
 Amazone| iPhone Charger 10ft (2-Pack), | 27.99     | https://www.amazon.com/gp/slredirect/picassoRedirect.html/ref=pa_sp_atf_next_aps_sr_pg7_1?ie=UTF8&adId=A01427743Q0HE5J9OZDXM&url=%2FCharger-Certified-Lightning-High-Speed-AirPods%2Fdp%2FB082WL9H5V%2Fref%3Dsr_1_97_sspa%3Fdchild%3D1%26keywords%3Diphone%2B11%26qid%3D1597127661%26sr%3D8-97-spons%26psc%3D1&qualifier=1597127673&id=1994546480812583&widgetName=sp_atf_next
 Amazone| TracFone Carrier-Locked TCL LX| 29.88     | https://www.amazon.com/TracFone-TCL-LTE-Prepaid-Smartphone/dp/B07GC5FZDM/ref=sr_1_41?dchild=1&keywords=iphone+11&qid=1597127625&sr=8-41
 Amazone| LONG-CZ J9 World Mini Smallest| 29.94     | https://www.amazon.com/LONG-CZ-World-Smallest-Mobile-Unlocked/dp/B07NS7YDKS/ref=sr_1_94?dchild=1&keywords=iphone+11&qid=1597127652&sr=8-94
 Amazone| TracFone Carrier-Locked ZTE Bl| 29.99     | https://www.amazon.com/Tracfone-Blade-Lite-Prepaid-Phone/dp/B07NXB6CC6/ref=sr_1_80?dchild=1&keywords=iphone+11&qid=1597127642&sr=8-80
 Amazone| Net10 Carrier-Locked LG Rebel | 29.99     | https://www.amazon.com/Net10-Rebel-LTE-Prepaid-Smartphone/dp/B07QHQ79XH/ref=sr_1_81?dchild=1&keywords=iphone+11&qid=1597127642&sr=8-81
 Amazone| VR Headset Compatible with iPh| 32.77     | https://www.amazon.com/gp/slredirect/picassoRedirect.html/ref=pa_sp_atf_next_aps_sr_pg8_1?ie=UTF8&adId=A0194425BG1FA5FOCOC&url=%2FComfortable-Adjustable-Protection-Compatible-Smartphones%2Fdp%2FB07DNKSYPW%2Fref%3Dsr_1_113_sspa%3Fdchild%3D1%26keywords%3Diphone%2B11%26qid%3D1597127673%26sr%3D8-113-spons%26psc%3D1&qualifier=1597127681&id=3103510667766783&widgetName=sp_atf_next
 Amazone| Pen Mini Cell Phone Bluetooth | 35.99     | https://www.amazon.com/Bluetooth-Support-Flashlight-Recorder-Rechargeable/dp/B07P8216SJ/ref=sr_1_108?dchild=1&keywords=iphone+11&qid=1597127661&sr=8-108
 Amazone| BodyGuardz - Harmony Case for | 39.95     | https://www.amazon.com/gp/slredirect/picassoRedirect.html/ref=pa_sp_atf_next_aps_sr_pg6_1?ie=UTF8&adId=A06366643YPAO4H76V19&url=%2FBodyGuardz-Harmony-Extreme-Scratch-Protection%2Fdp%2FB07Y5NHPYL%2Fref%3Dsr_1_81_sspa%3Fdchild%3D1%26keywords%3Diphone%2B11%26qid%3D1597127652%26sr%3D8-81-spons%26psc%3D1%26smid%3DA3UNP76Q3VYX0N&qualifier=1597127661&id=3849815305807071&widgetName=sp_atf_next
 Amazone| Total Wireless Carrier-Locked | 39.99     | https://www.amazon.com/Wireless-Samsung-Galaxy-Prepaid-Smartphone/dp/B07GC1XCPY/ref=sr_1_115?dchild=1&keywords=iphone+11&qid=1597127673&sr=8-115
 Amazone| Total Wireless Samsung Galaxy | 39.99     | https://www.amazon.com/Total-Wireless-Samsung-Prepaid-Smartphone/dp/B07Y5TGYK2/ref=sr_1_137?dchild=1&keywords=iphone+11&qid=1597127682&sr=8-137
 Amazone| Tracfone TCL A1X 4G LTE Prepai| 39.99     | https://www.amazon.com/Tracfone-TCL-Prepaid-Smartphone-Locked/dp/B07Y5V385Y/ref=sr_1_155?dchild=1&keywords=iphone+11&qid=1597127694&sr=8-155
 Amazone| Ushining Unlocked Flip Phone 3| 45.98     | https://www.amazon.com/Ushining-Unlocked-Phones-Button-Elderly/dp/B07VGRV62Y/ref=sr_1_136?dchild=1&keywords=iphone+11&qid=1597127682&sr=8-136
 Amazone| Simple Mobile Samsung Galaxy J| 51.91     | https://www.amazon.com/Simple-Mobile-Samsung-Prepaid-Smartphone/dp/B07Y5VKRLK/ref=sr_1_150?dchild=1&keywords=iphone+11&qid=1597127694&sr=8-150
 Amazone| AT&T GoPhone LG Phoenix 3 4G L| 58.75     | https://www.amazon.com/AT-GoPhone-Phoenix-Memory-Prepaid/dp/B071KGVXVS/ref=sr_1_117?dchild=1&keywords=iphone+11&qid=1597127673&sr=8-117
 Amazone| SIMPLE Mobile LG Premier Pro 4| 64.3      | https://www.amazon.com/SIMPLE-Mobile-Premier-Prepaid-Smartphones/dp/B07K3M2SDL/ref=sr_1_140?dchild=1&keywords=iphone+11&qid=1597127682&sr=8-140
 Amazone| LG Phoenix 4 AT&T Prepaid Smar| 70.0      | https://www.amazon.com/Phoenix-16GB-Memory-Prepaid-Phone/dp/B07RQFB4TP/ref=sr_1_74?dchild=1&keywords=iphone+11&qid=1597127642&sr=8-74
 Amazone| Mini Smartphone Android Unlock| 71.99     | https://www.amazon.com/Sudroid-Unlocked-Smartphone-Waterproof-Dust-proof/dp/B00NHPQDSI/ref=sr_1_142?dchild=1&keywords=iphone+11&qid=1597127682&sr=8-142
 Amazone| KidsConnect KC2 4G Kids GPS Tr| 87.95     | https://www.amazon.com/KidsConnect-KC2-Wearable-Children-Security/dp/B07818X65X/ref=sr_1_125?dchild=1&keywords=iphone+11&qid=1597127673&sr=8-125
 Amazone| Total Wireless Motorola Moto G| 88.07     | https://www.amazon.com/Total-Wireless-Motorola-Prepaid-Smartphone/dp/B07Y5TS6WR/ref=sr_1_152?dchild=1&keywords=iphone+11&qid=1597127694&sr=8-152
 Amazone| Mini Smartphone ,Child Phone S| 88.5      | https://www.amazon.com/Sudroid-Android-Definition-Phones-Unlocked/dp/B07BN983B1/ref=sr_1_67?dchild=1&keywords=iphone+11&qid=1597127642&sr=8-67
 Amazone| Mini Smartphone iLight X, Worl| 107.72    | https://www.amazon.com/Smartphone-iLight-Smallest-Android-Unlocked/dp/B07QL37B7D/ref=sr_1_99?dchild=1&keywords=iphone+11&qid=1597127661&sr=8-99
 Amazone| Rugged Cell Phones Unlocked, U| 109.99    | https://www.amazon.com/Unlocked-Ulefone-Armor-Waterproof-Android/dp/B07VN6KJKG/ref=sr_1_91?dchild=1&keywords=iphone+11&qid=1597127652&sr=8-91
 Amazone| HTC 10 EVO 5.5" Super LCD3 Dis| 109.99    | https://www.amazon.com/HTC-Display-Octa-Core-Camera-Smartphone/dp/B079K346ZL/ref=sr_1_121?dchild=1&keywords=iphone+11&qid=1597127673&sr=8-121
 Amazone| Samsung Galaxy A10s (32GB, 2GB| 149.0     | https://www.amazon.com/Samsung-Galaxy-Camera-Factory-Unlocked/dp/B07XYBHM6C/ref=sr_1_78?dchild=1&keywords=iphone+11&qid=1597127642&sr=8-78
 Amazone| Ulefone Armor X5 Rugged Cell P| 159.99    | https://www.amazon.com/Ulefone-Armor-X5-Waterproof-Smartphone/dp/B07ZGZ45QD/ref=sr_1_105?dchild=1&keywords=iphone+11&qid=1597127661&sr=8-105
 Amazone| Apple iPhone 7, 32GB, Black - | 189.99    | https://www.amazon.com/Apple-iPhone-Unlocked-Quad-Core-Smartphone/dp/B01N4R20RS/ref=sr_1_16?dchild=1&keywords=iphone+11&qid=1597127610&sr=8-16
 Amazone| Nokia 5.3 Fully Unlocked Smart| 199.0     | https://www.amazon.com/Nokia-Unlocked-Smartphone-AI-Powered-Charcoal/dp/B088ZQK2CN/ref=sr_1_77?dchild=1&keywords=iphone+11&qid=1597127642&sr=8-77
 Amazone| Motorola Moto G8+ Plus (64GB, | 199.99    | https://www.amazon.com/Motorola-Snapdragon-Unlocked-T-Mobile-XT2019-2/dp/B082XHJF8W/ref=sr_1_79?dchild=1&keywords=iphone+11&qid=1597127642&sr=8-79
 Amazone| Motorola Moto X4 Factory Unloc| 229.99    | https://www.amazon.com/Motorola-Moto-Factory-Unlocked-Phone/dp/B074VFRKZG/ref=sr_1_65?dchild=1&keywords=iphone+11&qid=1597127633&sr=8-65
 Amazone| Generic Goophone 11max OctaCor| 230.0     | https://www.amazon.com/Generic-Goophone-11max-OctaCore-internacional/dp/B083GD6GBC/ref=sr_1_85?dchild=1&keywords=iphone+11&qid=1597127652&sr=8-85
 Amazone| Xiaomi Redmi Note 8 Pro 128GB,| 230.9     | https://www.amazon.com/Xiaomi-Redmi-Factory-Unlocked-Smartphone/dp/B07ZS1B6ZJ/ref=sr_1_33?dchild=1&keywords=iphone+11&qid=1597127610&sr=8-33
 Amazone| Apple iPhone 7, 128GB, Rose Go| 239.97    | https://www.amazon.com/Apple-iPhone-GSM-Unlocked-128GB/dp/B0793C7H6X/ref=sr_1_53?dchild=1&keywords=iphone+11&qid=1597127633&sr=8-53
 Amazone| Samsung Galaxy S8, 64GB, Midni| 246.97    | https://www.amazon.com/Samsung-Galaxy-Unlocked-Smartphone-Carriers/dp/B0786PRKBP/ref=sr_1_57?dchild=1&keywords=iphone+11&qid=1597127633&sr=8-57
 Amazone| Samsung Galaxy S8 - 64GB - Arc| 249.0     | https://www.amazon.com/Samsung-Galaxy-S8-Certified-Refurbished/dp/B076HWX956/ref=sr_1_68?dchild=1&keywords=iphone+11&qid=1597127642&sr=8-68
 Amazone| Xiaomi Redmi Note 9S 6.67" 48M| 249.5     | https://www.amazon.com/Xiaomi-International-Global-Version-Glacier/dp/B085S4LC4V/ref=sr_1_43?dchild=1&keywords=iphone+11&qid=1597127625&sr=8-43
 Amazone| Verizon Prepaid - Apple iPhone| 249.99    | https://www.amazon.com/Verizon-Prepaid-Apple-iPhone-Space/dp/B07SVPKTYK/ref=sr_1_45?dchild=1&keywords=iphone+11&qid=1597127625&sr=8-45
 Amazone| Apple iPhone 8, 64GB, Silver -| 265.0     | https://www.amazon.com/Apple-iPhone-Fully-Unlocked-Refurbished/dp/B07756QYST/ref=sr_1_6?dchild=1&keywords=iphone+11&qid=1597127610&sr=8-6
 Amazone| Verizon Prepaid - Apple iPhone| 279.99    | https://www.amazon.com/Verizon-Prepaid-Apple-iPhone-Space/dp/B07SWT3BVV/ref=sr_1_35?dchild=1&keywords=iphone+11&qid=1597127625&sr=8-35
 Amazone| Apple MGKL2LL/A iPad Air 2 64G| 289.93    | https://www.amazon.com/Apple-MGKL2LL-Wi-Fi-Space-Refurbished/dp/B07DW3W64Y/ref=sr_1_89?dchild=1&keywords=iphone+11&qid=1597127652&sr=8-89
 Amazone| Moto G7 | Unlocked | Made for | 299.99    | https://www.amazon.com/Moto-G7-Unlocked-Warranty-T-Mobile/dp/B07N91S9MW/ref=sr_1_114?dchild=1&keywords=iphone+11&qid=1597127661&sr=8-114
 Amazone| Samsung Galaxy S9+, 64GB, Midn| 309.0     | https://www.amazon.com/Samsung-Galaxy-S9-Unlocked-Midnight/dp/B07C65VV3R/ref=sr_1_19?dchild=1&keywords=iphone+11&qid=1597127610&sr=8-19
 Amazone| OnePlus 6T A6013 Dual Sim 128G| 309.3     | https://www.amazon.com/OnePlus-A6013-128GB-Espejo-Negro/dp/B07XVNDQMR/ref=sr_1_11?dchild=1&keywords=iphone+11&qid=1597127610&sr=8-11
 Amazone| Apple iPhone 7 Plus, 128GB, Bl| 329.0     | https://www.amazon.com/Apple-iPhone-completamente-desbloqueado-renovado/dp/B06X9FGTMN/ref=sr_1_69?dchild=1&keywords=iphone+11&qid=1597127642&sr=8-69
 Amazone| Nokia 7.2 - Android 9.0 Pie - | 344.49    | https://www.amazon.com/Nokia-7-2-Unlocked-Smartphone-T-Mobile/dp/B07XVZXR5Y/ref=sr_1_30?dchild=1&keywords=iphone+11&qid=1597127610&sr=8-30
 Amazone| Apple iPhone 7 Plus, 128GB, Re| 359.97    | https://www.amazon.com/Apple-iPhone-Plus-Unlocked-128GB/dp/B078XK4VG5/ref=sr_1_13?dchild=1&keywords=iphone+11&qid=1597127610&sr=8-13
 Amazone| Samsung Galaxy Note 9, 128GB, | 389.0     | https://www.amazon.com/Samsung-Unlocked-Warranty-Certified-Refurbished/dp/B07H8QMZWV/ref=sr_1_59?dchild=1&keywords=iphone+11&qid=1597127633&sr=8-59
 Amazone| Apple iPhone 8 Plus, 64GB, Spa| 404.97    | https://www.amazon.com/Apple-iPhone-Plus-Unlocked-64GB/dp/B0775FLHPN/ref=sr_1_54?dchild=1&keywords=iphone+11&qid=1597127633&sr=8-54
 Amazone| Google - Pixel 3a XL with 64GB| 419.0     | https://www.amazon.com/Google-Pixel-Memory-Phone-Unlocked/dp/B07R5CJDD7/ref=sr_1_22?dchild=1&keywords=iphone+11&qid=1597127610&sr=8-22
 Amazone| Samsung Galaxy S10e, 128GB, Pr| 423.75    | https://www.amazon.com/Samsung-Factory-Unlocked-Warranty-Renewed/dp/B07PB3WV54/ref=sr_1_70?dchild=1&keywords=iphone+11&qid=1597127642&sr=8-70
 Amazone| Samsung Galaxy S10, 128GB, Pri| 439.95    | https://www.amazon.com/Samsung-Factory-Unlocked-Warranty-Renewed/dp/B07PFL39NH/ref=sr_1_44?dchild=1&keywords=iphone+11&qid=1597127625&sr=8-44
 Amazone| Apple iPhone XR, 64GB, Red - F| 469.0     | https://www.amazon.com/Apple-iPhone-XR-Fully-Unlocked/dp/B07P6Y8L3F/ref=sr_1_2?dchild=1&keywords=iphone+11&qid=1597127610&sr=8-2
 Amazone| Samsung Galaxy S10+, 128GB, Pr| 478.95    | https://www.amazon.com/Samsung-Galaxy-Verizon-Unlocked-Renewed/dp/B07SVFJ3P5/ref=sr_1_49?dchild=1&keywords=iphone+11&qid=1597127625&sr=8-49
 Amazone| Apple iPhone X, 256GB, Silver | 489.99    | https://www.amazon.com/Apple-iPhone-256GB-Silver-Unlocked/dp/B081TJ7B88/ref=sr_1_4?dchild=1&keywords=iphone+11&qid=1597127610&sr=8-4
 Amazone| Samsung Galaxy S10+, 128GB, Pr| 494.95    | https://www.amazon.com/Samsung-Galaxy-Verizon-Unlocked-Renewed/dp/B07SVFGKCJ/ref=sr_1_50?dchild=1&keywords=iphone+11&qid=1597127625&sr=8-50
 Amazone| Apple iPhone XR, 64GB, White -| 499.99    | https://www.amazon.com/Apple-iPhone-XR-64GB-White/dp/B07SLKGBHS/ref=sr_1_82?dchild=1&keywords=iphone+11&qid=1597127642&sr=8-82
 Amazone| Samsung Galaxy Cellphone - S10| 519.0     | https://www.amazon.com/Samsung-Galaxy-Cellphone-Factory-Renewed/dp/B07TSR1VDZ/ref=sr_1_36?dchild=1&keywords=iphone+11&qid=1597127625&sr=8-36
 Amazone| Samsung Galaxy S10+ Plus 128GB| 629.0     | https://www.amazon.com/Samsung-SM-G975F-Unlocked-Smartphone-International/dp/B07NZX5BKH/ref=sr_1_23?dchild=1&keywords=iphone+11&qid=1597127610&sr=8-23
 Amazone| Samsung Galaxy S10+ Plus 128GB| 629.0     | https://www.amazon.com/Samsung-SM-G975F-Smartphone-International-No-Warranty/dp/B07TS4V1S5/ref=sr_1_90?dchild=1&keywords=iphone+11&qid=1597127652&sr=8-90
 Amazone| Samsung Galaxy S10+ Plus 128GB| 629.0     | https://www.amazon.com/Samsung-SM-G975F-Unlocked-Smartphone-International/dp/B07QCCVSX8/ref=sr_1_143?dchild=1&keywords=iphone+11&qid=1597127682&sr=8-143
 Amazone| Samsung Galaxy S10+ Plus 128GB| 629.0     | https://www.amazon.com/Samsung-SM-G975F-Smartphone-International-No-Warranty/dp/B07QDC8G3J/ref=sr_1_151?dchild=1&keywords=iphone+11&qid=1597127694&sr=8-151
 Amazone| Apple iPhone XS Max, 64GB, Gol| 634.97    | https://www.amazon.com/iPhone-Renovado-Totalmente-desbloqueado-Dorado/dp/B07KFMTWVF/ref=sr_1_5?dchild=1&keywords=iphone+11&qid=1597127610&sr=8-5
 Amazone| Apple iPhone 11, 64GB, Unlocke| 679.97    | https://www.amazon.com/Apple-iPhone-11-64GB-Unlocked/dp/B07ZPKF8RG/ref=sr_1_1?dchild=1&keywords=iphone+11&qid=1597127610&sr=8-1
 Amazone| Samsung Galaxy S10 Factory Unl| 684.99    | https://www.amazon.com/Samsung-Factory-Unlocked-Shockproof-MicroSD/dp/B083PYCY29/ref=sr_1_46?dchild=1&keywords=iphone+11&qid=1597127625&sr=8-46
 Amazone| Sony Xperia 5 Unlocked Smartph| 698.0     | https://www.amazon.com/Sony-Xperia-5-Unlocked-Smartphone/dp/B07XF928ZP/ref=sr_1_25?dchild=1&keywords=iphone+11&qid=1597127610&sr=8-25
 Amazone| Oneplus 7 Pro GM1910 256GB, 8G| 699.0     | https://www.amazon.com/OnePlus-Smartphone-Android-desbloqueado-Nebula/dp/B07RCGY3VD/ref=sr_1_100?dchild=1&keywords=iphone+11&qid=1597127661&sr=8-100
 Amazone| Motorola Edge | Unlocked | Mad| 699.99    | https://www.amazon.com/Motorola-Unlocked-256GB-Camera-Solar/dp/B08B9SGGRS/ref=sr_1_20?dchild=1&keywords=iphone+11&qid=1597127610&sr=8-20
 Amazone| Samsung Galaxy S10+ Plus 512GB| 729.0     | https://www.amazon.com/Samsung-SM-G975F-Dual-SIM-Unlocked-Smartphone/dp/B07NWKP41X/ref=sr_1_51?dchild=1&keywords=iphone+11&qid=1597127633&sr=8-51
 Amazone| Samsung Galaxy S10 Factory Unl| 747.0     | https://www.amazon.com/Tel%C3%A9fono-desbloqueado-f%C3%A1brica-Samsung-Galaxy/dp/B07N4M412B/ref=sr_1_39?dchild=1&keywords=iphone+11&qid=1597127625&sr=8-39
 Amazone| Huawei Mate 10 Pro Unlocked Ph| 763.42    | https://www.amazon.com/Huawei-Unlocked-Processor-Camera-Resistant/dp/B078T2T2FL/ref=sr_1_109?dchild=1&keywords=iphone+11&qid=1597127661&sr=8-109
 Amazone| Samsung Galaxy Note 10+ Plus 4| 865.0     | https://www.amazon.com/Samsung-Dual-SIM-SM-N975F-Unlocked-Smartphone/dp/B07W81PVKT/ref=sr_1_106?dchild=1&keywords=iphone+11&qid=1597127661&sr=8-106
 Amazone| Google Pixel 4 XL - Just Black| 899.99    | https://www.amazon.com/Google-Pixel-XL-Black-Unlocked/dp/B07YMG37J4/ref=sr_1_21?dchild=1&keywords=iphone+11&qid=1597127610&sr=8-21
 Amazone| OnePlus 8 Pro Onyx Black, 5G U| 934.69    | https://www.amazon.com/OnePlus-Unlocked-Android-Smartphone-Wireless/dp/B08723FJMF/ref=sr_1_32?dchild=1&keywords=iphone+11&qid=1597127610&sr=8-32
 Amazone| Samsung Galaxy Note 10 Factory| 946.0     | https://www.amazon.com/Samsung-Galaxy-Factory-Unlocked-Warranty/dp/B07V5KSWXM/ref=sr_1_28?dchild=1&keywords=iphone+11&qid=1597127610&sr=8-28
